UVM_RAM_8bit_TLM_FIFO/sim/logs/ram_test.log
# vsim -c top "+UVM_TESTNAME=ram_test" -l logs/ram_test.log -do "run -all; quit -f" 
# Start time: 13:58:16 on Dec 20,2025
# ** Note: (vsim-3813) Design is being optimized due to module recompilation...
# //  Questa Sim-64
# //  Version 10.7c win64 Aug 18 2018
# //
# //  Copyright 1991-2018 Mentor Graphics Corporation
# //  All Rights Reserved.
# //
# //  QuestaSim and its associated documentation contain trade
# //  secrets and commercial or financial information that are the property of
# //  Mentor Graphics Corporation and are privileged, confidential,
# //  and exempt from disclosure under the Freedom of Information Act,
# //  5 U.S.C. Section 552. Furthermore, this information
# //  is prohibited from disclosure under the Trade Secrets Act,
# //  18 U.S.C. Section 1905.
# //
# Loading sv_std.std
# Loading work.ram_if(fast)
# Loading mtiUvm.uvm_pkg
# Loading work.ram_pkg(fast)
# Loading work.top_sv_unit(fast)
# Loading work.top(fast)
# Loading mtiUvm.questa_uvm_pkg(fast)
# Loading D:/questasim_b_install/uvm-1.1d\win64\uvm_dpi.dll
# run -all
# ----------------------------------------------------------------
# UVM-1.1d
# (C) 2007-2013 Mentor Graphics Corporation
# (C) 2007-2013 Cadence Design Systems, Inc.
# (C) 2006-2013 Synopsys, Inc.
# (C) 2011-2013 Cypress Semiconductor Corp.
# ----------------------------------------------------------------
# 
#   ***********       IMPORTANT RELEASE NOTES         ************
# 
#   You are using a version of the UVM library that has been compiled
#   with `UVM_NO_DEPRECATED undefined.
#   See http://www.eda.org/svdb/view.php?id=3313 for more details.
# 
#   You are using a version of the UVM library that has been compiled
#   with `UVM_OBJECT_MUST_HAVE_CONSTRUCTOR undefined.
#   See http://www.eda.org/svdb/view.php?id=3770 for more details.
# 
#       (Specify +UVM_NO_RELNOTES to turn off this notice)
# 
# UVM_INFO verilog_src/questa_uvm_pkg-1.2/src/questa_uvm_pkg.sv(215) @ 0: reporter [Questa UVM] QUESTA_UVM-1.2.3
# UVM_INFO verilog_src/questa_uvm_pkg-1.2/src/questa_uvm_pkg.sv(216) @ 0: reporter [Questa UVM]  questa_uvm::init(+struct)
# UVM_INFO @ 0: reporter [RNTST] Running test ram_test...
# UVM_INFO @ 0: reporter [UVMTOP] UVM testbench topology:
# ------------------------------------------------------------------
# Name                       Type                        Size  Value
# ------------------------------------------------------------------
# uvm_test_top               ram_test                    -     @471 
#   env                      ram_env                     -     @478 
#     agent                  ram_agent                   -     @485 
#       driver               ram_driver                  -     @594 
#         rsp_port           uvm_analysis_port           -     @609 
#         seq_item_port      uvm_seq_item_pull_port      -     @601 
#       golden               ram_golden                  -     @632 
#         item_golden_port   uvm_analysis_port           -     @639 
#       monitor              ram_monitor                 -     @617 
#         item_send_port     uvm_analysis_port           -     @624 
#       seqr                 uvm_sequencer               -     @647 
#         rsp_export         uvm_analysis_export         -     @654 
#         seq_item_export    uvm_seq_item_pull_imp       -     @748 
#         arbitration_queue  array                       0     -    
#         lock_queue         array                       0     -    
#         num_last_reqs      integral                    32    'd1  
#         num_last_rsps      integral                    32    'd1  
#     scoreboard             ram_scoreboard              -     @492 
#       item_golden_imp      uvm_tlm_analysis_fifo #(T)  -     @546 
#         analysis_export    uvm_analysis_imp            -     @585 
#         get_ap             uvm_analysis_port           -     @577 
#         get_peek_export    uvm_get_peek_imp            -     @561 
#         put_ap             uvm_analysis_port           -     @569 
#         put_export         uvm_put_imp                 -     @553 
#       item_got_imp         uvm_tlm_analysis_fifo #(T)  -     @499 
#         analysis_export    uvm_analysis_imp            -     @538 
#         get_ap             uvm_analysis_port           -     @530 
#         get_peek_export    uvm_get_peek_imp            -     @514 
#         put_ap             uvm_analysis_port           -     @522 
#         put_export         uvm_put_imp                 -     @506 
# ------------------------------------------------------------------
# 
# UVM_INFO ../uvc/env/./ram_scoreboard.sv(25) @ 0: uvm_test_top.env.scoreboard [RAM_SEQ] 
# ====================  ====================
# 
# UVM_INFO ../uvc/env/./ram_golden.sv(58) @ 5000: uvm_test_top.env.agent.golden [GOLDEN_2] wr = 1, dout = 0
# UVM_INFO ../uvc/env/./ram_monitor.sv(47) @ 5000: uvm_test_top.env.agent.monitor [MON] wr=1 din=0 addr=0 dout=0
# UVM_INFO ../uvc/env/./ram_scoreboard.sv(35) @ 5000: uvm_test_top.env.scoreboard [SB] PASSED , wr = 1, addr = 0, din = 0, dout = 0
# UVM_INFO ../uvc/env/./ram_scoreboard.sv(37) @ 5000: uvm_test_top.env.scoreboard [SB_gol] PASSED , wr_gol = 1, addr_gol = 0, din_gol = 0, dout_gol = 0
# UVM_INFO ../uvc/env/./ram_scoreboard.sv(25) @ 5000: uvm_test_top.env.scoreboard [RAM_SEQ] 
# ====================  ====================
# 
# UVM_INFO ../uvc/env/./ram_driver.sv(30) @ 5000: uvm_test_top.env.agent.driver [DRV] wr = 1, din = 40, addr = 0
# UVM_INFO ../uvc/env/./ram_monitor.sv(47) @ 15000: uvm_test_top.env.agent.monitor [MON] wr=1 din=40 addr=0 dout=0
# UVM_INFO ../uvc/env/./ram_golden.sv(58) @ 15000: uvm_test_top.env.agent.golden [GOLDEN_2] wr = 1, dout = 0
# UVM_INFO ../uvc/env/./ram_scoreboard.sv(35) @ 15000: uvm_test_top.env.scoreboard [SB] PASSED , wr = 1, addr = 0, din = 40, dout = 0
# UVM_INFO ../uvc/env/./ram_scoreboard.sv(37) @ 15000: uvm_test_top.env.scoreboard [SB_gol] PASSED , wr_gol = 1, addr_gol = 0, din_gol = 40, dout_gol = 0
# UVM_INFO ../uvc/env/./ram_scoreboard.sv(25) @ 15000: uvm_test_top.env.scoreboard [RAM_SEQ] 
# ====================  ====================
# 
# UVM_INFO ../uvc/env/./ram_driver.sv(30) @ 15000: uvm_test_top.env.agent.driver [DRV] wr = 0, din = c7, addr = 0
# UVM_INFO ../uvc/seq/../seq/ram_seq.sv(34) @ 15000: uvm_test_top.env.agent.seqr@@seq [ram_seq] WRITE then READ at addr = 0x0
# UVM_INFO ../uvc/env/./ram_golden.sv(58) @ 25000: uvm_test_top.env.agent.golden [GOLDEN_2] wr = 0, dout = 40
# UVM_INFO ../uvc/env/./ram_driver.sv(30) @ 25000: uvm_test_top.env.agent.driver [DRV] wr = 1, din = 24, addr = 0
# UVM_INFO ../uvc/env/./ram_monitor.sv(47) @ 35000: uvm_test_top.env.agent.monitor [MON] wr=0 din=c7 addr=0 dout=40
# UVM_INFO ../uvc/env/./ram_golden.sv(58) @ 35000: uvm_test_top.env.agent.golden [GOLDEN_2] wr = 1, dout = 0
# UVM_INFO ../uvc/env/./ram_scoreboard.sv(40) @ 35000: uvm_test_top.env.scoreboard [SB] PASSED , wr = 0, addr = 0, din = c7, dout = 40
# UVM_INFO ../uvc/env/./ram_scoreboard.sv(42) @ 35000: uvm_test_top.env.scoreboard [SB_gol] PASSED , wr_gol = 0, addr_gol = 0, din_gol = c7, dout_gol = 40
# UVM_INFO ../uvc/env/./ram_scoreboard.sv(25) @ 35000: uvm_test_top.env.scoreboard [RAM_SEQ] 
# ====================  ====================
# 
# UVM_INFO ../uvc/env/./ram_driver.sv(30) @ 35000: uvm_test_top.env.agent.driver [DRV] wr = 0, din = 2e, addr = 0
# UVM_INFO ../uvc/seq/../seq/ram_seq.sv(34) @ 35000: uvm_test_top.env.agent.seqr@@seq [ram_seq] WRITE then READ at addr = 0x0
# UVM_INFO ../uvc/env/./ram_golden.sv(58) @ 45000: uvm_test_top.env.agent.golden [GOLDEN_2] wr = 0, dout = 24
# UVM_INFO ../uvc/env/./ram_driver.sv(30) @ 45000: uvm_test_top.env.agent.driver [DRV] wr = 1, din = f1, addr = 8
# UVM_INFO ../uvc/env/./ram_monitor.sv(47) @ 55000: uvm_test_top.env.agent.monitor [MON] wr=0 din=2e addr=0 dout=24
# UVM_INFO ../uvc/env/./ram_golden.sv(58) @ 55000: uvm_test_top.env.agent.golden [GOLDEN_2] wr = 1, dout = 0
# UVM_INFO @ 55000: reporter [MISCMP] Miscompare for trans.wr: lhs = 'h0 : rhs = 'h1
# UVM_INFO @ 55000: reporter [MISCMP] 1 Miscompare(s) for object trans@852 vs. trans@864
# UVM_ERROR ../uvc/env/./ram_scoreboard.sv(46) @ 55000: uvm_test_top.env.scoreboard [SB] FAILED , wr = 0, addr = 0, din = 2e, dout = 24 | din_gol = 24, dout_gol = 0
# UVM_INFO ../uvc/env/./ram_scoreboard.sv(25) @ 55000: uvm_test_top.env.scoreboard [RAM_SEQ] 
# ====================  ====================
# 
# UVM_INFO ../uvc/env/./ram_driver.sv(30) @ 55000: uvm_test_top.env.agent.driver [DRV] wr = 0, din = 9a, addr = 8
# UVM_INFO ../uvc/seq/../seq/ram_seq.sv(34) @ 55000: uvm_test_top.env.agent.seqr@@seq [ram_seq] WRITE then READ at addr = 0x8
# UVM_INFO ../uvc/env/./ram_golden.sv(58) @ 65000: uvm_test_top.env.agent.golden [GOLDEN_2] wr = 0, dout = f1
# UVM_INFO ../uvc/env/./ram_driver.sv(30) @ 65000: uvm_test_top.env.agent.driver [DRV] wr = 1, din = 84, addr = c
# UVM_INFO ../uvc/env/./ram_monitor.sv(47) @ 75000: uvm_test_top.env.agent.monitor [MON] wr=0 din=9a addr=8 dout=f1
# UVM_INFO ../uvc/env/./ram_golden.sv(58) @ 75000: uvm_test_top.env.agent.golden [GOLDEN_2] wr = 1, dout = 0
# UVM_INFO @ 75000: reporter [MISCMP] Miscompare for trans.addr: lhs = 'h8 : rhs = 'h0
# UVM_INFO @ 75000: reporter [MISCMP] 1 Miscompare(s) for object trans@868 vs. trans@892
# UVM_ERROR ../uvc/env/./ram_scoreboard.sv(46) @ 75000: uvm_test_top.env.scoreboard [SB] FAILED , wr = 0, addr = 8, din = 9a, dout = f1 | din_gol = 2e, dout_gol = 24
# UVM_INFO ../uvc/env/./ram_scoreboard.sv(25) @ 75000: uvm_test_top.env.scoreboard [RAM_SEQ] 
# ====================  ====================
# 
# UVM_INFO ../uvc/env/./ram_driver.sv(30) @ 75000: uvm_test_top.env.agent.driver [DRV] wr = 0, din = 5a, addr = c
# UVM_INFO ../uvc/seq/../seq/ram_seq.sv(34) @ 75000: uvm_test_top.env.agent.seqr@@seq [ram_seq] WRITE then READ at addr = 0xc
# UVM_INFO ../uvc/env/./ram_golden.sv(58) @ 85000: uvm_test_top.env.agent.golden [GOLDEN_2] wr = 0, dout = 84
# UVM_INFO ../uvc/env/./ram_driver.sv(30) @ 85000: uvm_test_top.env.agent.driver [DRV] wr = 1, din = 54, addr = 8
# UVM_INFO ../uvc/env/./ram_monitor.sv(47) @ 95000: uvm_test_top.env.agent.monitor [MON] wr=0 din=5a addr=c dout=84
# UVM_INFO ../uvc/env/./ram_golden.sv(58) @ 95000: uvm_test_top.env.agent.golden [GOLDEN_2] wr = 1, dout = 0
# UVM_INFO @ 95000: reporter [MISCMP] Miscompare for trans.wr: lhs = 'h0 : rhs = 'h1
# UVM_INFO @ 95000: reporter [MISCMP] 1 Miscompare(s) for object trans@880 vs. trans@920
# UVM_ERROR ../uvc/env/./ram_scoreboard.sv(46) @ 95000: uvm_test_top.env.scoreboard [SB] FAILED , wr = 0, addr = c, din = 5a, dout = 84 | din_gol = f1, dout_gol = 0
# UVM_INFO ../uvc/env/./ram_scoreboard.sv(25) @ 95000: uvm_test_top.env.scoreboard [RAM_SEQ] 
# ====================  ====================
# 
# UVM_INFO ../uvc/env/./ram_driver.sv(30) @ 95000: uvm_test_top.env.agent.driver [DRV] wr = 0, din = 8a, addr = 8
# UVM_INFO ../uvc/seq/../seq/ram_seq.sv(34) @ 95000: uvm_test_top.env.agent.seqr@@seq [ram_seq] WRITE then READ at addr = 0x8
# UVM_INFO ../uvc/env/./ram_golden.sv(58) @ 105000: uvm_test_top.env.agent.golden [GOLDEN_2] wr = 0, dout = 54
# UVM_INFO ../uvc/env/./ram_driver.sv(30) @ 105000: uvm_test_top.env.agent.driver [DRV] wr = 1, din = f1, addr = 0
# UVM_INFO ../uvc/env/./ram_monitor.sv(47) @ 115000: uvm_test_top.env.agent.monitor [MON] wr=0 din=8a addr=8 dout=54
# UVM_INFO ../uvc/env/./ram_golden.sv(58) @ 115000: uvm_test_top.env.agent.golden [GOLDEN_2] wr = 1, dout = 0
# UVM_INFO @ 115000: reporter [MISCMP] Miscompare for trans.din: lhs = 'h8a : rhs = 'h9a
# UVM_INFO @ 115000: reporter [MISCMP] 1 Miscompare(s) for object trans@896 vs. trans@948
# UVM_ERROR ../uvc/env/./ram_scoreboard.sv(46) @ 115000: uvm_test_top.env.scoreboard [SB] FAILED , wr = 0, addr = 8, din = 8a, dout = 54 | din_gol = 9a, dout_gol = f1
# UVM_INFO ../uvc/env/./ram_scoreboard.sv(25) @ 115000: uvm_test_top.env.scoreboard [RAM_SEQ] 
# ====================  ====================
# 
# UVM_INFO ../uvc/env/./ram_driver.sv(30) @ 115000: uvm_test_top.env.agent.driver [DRV] wr = 0, din = f5, addr = 0
# UVM_INFO ../uvc/seq/../seq/ram_seq.sv(34) @ 115000: uvm_test_top.env.agent.seqr@@seq [ram_seq] WRITE then READ at addr = 0x0
# UVM_INFO ../uvc/env/./ram_golden.sv(58) @ 125000: uvm_test_top.env.agent.golden [GOLDEN_2] wr = 0, dout = f1
# UVM_INFO ../uvc/env/./ram_driver.sv(30) @ 125000: uvm_test_top.env.agent.driver [DRV] wr = 1, din = a2, addr = 8
# UVM_INFO ../uvc/env/./ram_monitor.sv(47) @ 135000: uvm_test_top.env.agent.monitor [MON] wr=0 din=f5 addr=0 dout=f1
# UVM_INFO ../uvc/env/./ram_golden.sv(58) @ 135000: uvm_test_top.env.agent.golden [GOLDEN_2] wr = 1, dout = 0
# UVM_INFO @ 135000: reporter [MISCMP] Miscompare for trans.wr: lhs = 'h0 : rhs = 'h1
# UVM_INFO @ 135000: reporter [MISCMP] 1 Miscompare(s) for object trans@908 vs. trans@976
# UVM_ERROR ../uvc/env/./ram_scoreboard.sv(46) @ 135000: uvm_test_top.env.scoreboard [SB] FAILED , wr = 0, addr = 0, din = f5, dout = f1 | din_gol = 84, dout_gol = 0
# UVM_INFO ../uvc/env/./ram_scoreboard.sv(25) @ 135000: uvm_test_top.env.scoreboard [RAM_SEQ] 
# ====================  ====================
# 
# UVM_INFO ../uvc/env/./ram_driver.sv(30) @ 135000: uvm_test_top.env.agent.driver [DRV] wr = 0, din = bf, addr = 8
# UVM_INFO ../uvc/seq/../seq/ram_seq.sv(34) @ 135000: uvm_test_top.env.agent.seqr@@seq [ram_seq] WRITE then READ at addr = 0x8
# UVM_INFO ../uvc/env/./ram_golden.sv(58) @ 145000: uvm_test_top.env.agent.golden [GOLDEN_2] wr = 0, dout = a2
# UVM_INFO ../uvc/env/./ram_driver.sv(30) @ 145000: uvm_test_top.env.agent.driver [DRV] wr = 1, din = d2, addr = c
# UVM_INFO ../uvc/env/./ram_monitor.sv(47) @ 155000: uvm_test_top.env.agent.monitor [MON] wr=0 din=bf addr=8 dout=a2
# UVM_INFO ../uvc/env/./ram_golden.sv(58) @ 155000: uvm_test_top.env.agent.golden [GOLDEN_2] wr = 1, dout = 0
# UVM_INFO @ 155000: reporter [MISCMP] Miscompare for trans.addr: lhs = 'h8 : rhs = 'hc
# UVM_INFO @ 155000: reporter [MISCMP] 1 Miscompare(s) for object trans@924 vs. trans@1004
# UVM_ERROR ../uvc/env/./ram_scoreboard.sv(46) @ 155000: uvm_test_top.env.scoreboard [SB] FAILED , wr = 0, addr = 8, din = bf, dout = a2 | din_gol = 5a, dout_gol = 84
# UVM_INFO ../uvc/env/./ram_scoreboard.sv(25) @ 155000: uvm_test_top.env.scoreboard [RAM_SEQ] 
# ====================  ====================
# 
# UVM_INFO ../uvc/env/./ram_driver.sv(30) @ 155000: uvm_test_top.env.agent.driver [DRV] wr = 0, din = 67, addr = c
# UVM_INFO ../uvc/seq/../seq/ram_seq.sv(34) @ 155000: uvm_test_top.env.agent.seqr@@seq [ram_seq] WRITE then READ at addr = 0xc
# UVM_INFO ../uvc/env/./ram_golden.sv(58) @ 165000: uvm_test_top.env.agent.golden [GOLDEN_2] wr = 0, dout = d2
# UVM_INFO ../uvc/env/./ram_driver.sv(30) @ 165000: uvm_test_top.env.agent.driver [DRV] wr = 1, din = f9, addr = c
# UVM_INFO ../uvc/env/./ram_monitor.sv(47) @ 175000: uvm_test_top.env.agent.monitor [MON] wr=0 din=67 addr=c dout=d2
# UVM_INFO ../uvc/env/./ram_golden.sv(58) @ 175000: uvm_test_top.env.agent.golden [GOLDEN_2] wr = 1, dout = 0
# UVM_INFO @ 175000: reporter [MISCMP] Miscompare for trans.wr: lhs = 'h0 : rhs = 'h1
# UVM_INFO @ 175000: reporter [MISCMP] 1 Miscompare(s) for object trans@936 vs. trans@1032
# UVM_ERROR ../uvc/env/./ram_scoreboard.sv(46) @ 175000: uvm_test_top.env.scoreboard [SB] FAILED , wr = 0, addr = c, din = 67, dout = d2 | din_gol = 54, dout_gol = 0
# UVM_INFO ../uvc/env/./ram_scoreboard.sv(25) @ 175000: uvm_test_top.env.scoreboard [RAM_SEQ] 
# ====================  ====================
# 
# UVM_INFO ../uvc/env/./ram_driver.sv(30) @ 175000: uvm_test_top.env.agent.driver [DRV] wr = 0, din = 1b, addr = c
# UVM_INFO ../uvc/seq/../seq/ram_seq.sv(34) @ 175000: uvm_test_top.env.agent.seqr@@seq [ram_seq] WRITE then READ at addr = 0xc
# UVM_INFO ../uvc/env/./ram_golden.sv(58) @ 185000: uvm_test_top.env.agent.golden [GOLDEN_2] wr = 0, dout = f9
# UVM_INFO ../uvc/env/./ram_driver.sv(30) @ 185000: uvm_test_top.env.agent.driver [DRV] wr = 1, din = e7, addr = 4
# UVM_INFO ../uvc/env/./ram_monitor.sv(47) @ 195000: uvm_test_top.env.agent.monitor [MON] wr=0 din=1b addr=c dout=f9
# UVM_INFO ../uvc/env/./ram_golden.sv(58) @ 195000: uvm_test_top.env.agent.golden [GOLDEN_2] wr = 1, dout = 0
# UVM_INFO @ 195000: reporter [MISCMP] Miscompare for trans.addr: lhs = 'hc : rhs = 'h8
# UVM_INFO @ 195000: reporter [MISCMP] 1 Miscompare(s) for object trans@952 vs. trans@1060
# UVM_ERROR ../uvc/env/./ram_scoreboard.sv(46) @ 195000: uvm_test_top.env.scoreboard [SB] FAILED , wr = 0, addr = c, din = 1b, dout = f9 | din_gol = 8a, dout_gol = 54
# UVM_INFO ../uvc/env/./ram_scoreboard.sv(25) @ 195000: uvm_test_top.env.scoreboard [RAM_SEQ] 
# ====================  ====================
# 
# UVM_INFO ../uvc/env/./ram_driver.sv(30) @ 195000: uvm_test_top.env.agent.driver [DRV] wr = 0, din = 0, addr = 4
# UVM_INFO ../uvc/seq/../seq/ram_seq.sv(34) @ 195000: uvm_test_top.env.agent.seqr@@seq [ram_seq] WRITE then READ at addr = 0x4
# UVM_INFO verilog_src/uvm-1.1d/src/base/uvm_objection.svh(1267) @ 195000: reporter [TEST_DONE] 'run' phase is ready to proceed to the 'extract' phase
# UVM_ERROR ../uvc/seq/../tests/base_test.sv(39) @ 195000: uvm_test_top [BASE_TEST] ** TEST FAILED **
# 
# --- UVM Report Summary ---
# 
# ** Report counts by severity
# UVM_INFO :  100
# UVM_WARNING :    0
# UVM_ERROR :    9
# UVM_FATAL :    0
# ** Report counts by id
# [BASE_TEST]     1
# [DRV]    20
# [GOLDEN_2]    20
# [MISCMP]    16
# [MON]    11
# [Questa UVM]     2
# [RAM_SEQ]    12
# [RNTST]     1
# [SB]    11
# [SB_gol]     3
# [TEST_DONE]     1
# [UVMTOP]     1
# [ram_seq]    10
# ** Note: $finish    : D:/questasim_b_install/win64/../verilog_src/uvm-1.1d/src/base/uvm_root.svh(430)
#    Time: 195 ns  Iteration: 66  Instance: /top
# End time: 13:59:18 on Dec 20,2025, Elapsed time: 0:01:02
# Errors: 0, Warnings: 0
